{
   "botSummaries":[
      {
         "running":true,
         "market":"ETH-BTC",
         "averageROI":"5.00%",
         "totalWins":12,
         "totalLosses":2,
         "name":"Wottle",
         "tradingLimit":0.5,
         "exchange":"binance",
         "id":1,
         "winLoss":6,
         "strategy":"SMA Strategy"
      },
      {
         "running":false,
         "market":"ETH-BTC",
         "averageROI":"15.00%",
         "totalWins":2,
         "totalLosses":1,
         "name":"Wottle2",
         "tradingLimit":0.5,
         "exchange":"binance",
         "id":2,
         "winLoss":2,
         "strategy":"SMA Strategy"
      }
   ]
}