{  
   "data":[  
      {  
         "symbol":"OMG",
         "tokenProportions":[  
            "100.00%",
            "0.00%"
         ],
         "totalBalance":250.70051,
         "USD":"$0.03",
         "portionOfPortfolio":"38.00%",
         "tokenLocations":[  
            "0xd37fc846d81229d94a91f9fd8309d889eb8c6f60",
            "Binance"
         ],
         "tokenBalances":[  
            250.699,
            0.00151
         ]
      },
      {  
         "symbol":"ZRX",
         "tokenProportions":[  
            "99.94%",
            "0.06%"
         ],
         "totalBalance":1501.531,
         "USD":"$1.11",
         "portionOfPortfolio":"15.00%",
         "tokenLocations":[  
            "0xd37fc846d81229d94a91f9fd8309d889eb8c6f60",
            "Binance"
         ],
         "tokenBalances":[  
            1500.6,
            0.931
         ]
      },
      {  
         "symbol":"ETH",
         "tokenProportions":[  
            "8.41%",
            "91.59%"
         ],
         "totalBalance":1.675448764,
         "USD":"$1461.04",
         "portionOfPortfolio":"13.00%",
         "tokenLocations":[  
            "0xd37fc846d81229d94a91f9fd8309d889eb8c6f60",
            "Binance"
         ],
         "tokenBalances":[  
            0.140870424,
            1.53457834
         ]
      },
      {  
         "symbol":"NAV",
         "tokenProportions":[  
            "100.00%"
         ],
         "totalBalance":0.00623,
         "USD":"$0.01",
         "portionOfPortfolio":"0.00%",
         "tokenLocations":[  
            "Binance"
         ],
         "tokenBalances":[  
            0.00623
         ]
      },
      {  
         "symbol":"AMB",
         "tokenProportions":[  
            "100.00%"
         ],
         "totalBalance":0.11814,
         "USD":"$0.08",
         "portionOfPortfolio":"0.00%",
         "tokenLocations":[  
            "Binance"
         ],
         "tokenBalances":[  
            0.11814
         ]
      },
      {  
         "symbol":"XLM",
         "tokenProportions":[  
            "100.00%"
         ],
         "totalBalance":0.0082,
         "USD":"$0.00",
         "portionOfPortfolio":"0.00%",
         "tokenLocations":[  
            "Binance"
         ],
         "tokenBalances":[  
            0.0082
         ]
      },
      {  
         "symbol":"TRX",
         "tokenProportions":[  
            "100.00%"
         ],
         "totalBalance":0.5105,
         "USD":"$0.03",
         "portionOfPortfolio":"0.00%",
         "tokenLocations":[  
            "Binance"
         ],
         "tokenBalances":[  
            0.5105
         ]
      },
      {  
         "symbol":"SUB",
         "tokenProportions":[  
            "100.00%"
         ],
         "totalBalance":0.916,
         "USD":"$0.62",
         "portionOfPortfolio":"0.00%",
         "tokenLocations":[  
            "Binance"
         ],
         "tokenBalances":[  
            0.916
         ]
      },
      {  
         "symbol":"BCC",
         "tokenProportions":[  
            "100.00%"
         ],
         "totalBalance":4.11E-6,
         "USD":"$0.00",
         "portionOfPortfolio":"0.00%",
         "tokenLocations":[  
            "Binance"
         ],
         "tokenBalances":[  
            4.11E-6
         ]
      },
      {  
         "symbol":"NULS",
         "tokenProportions":[  
            "100.00%"
         ],
         "totalBalance":0.00778,
         "USD":"$0.03",
         "portionOfPortfolio":"0.00%",
         "tokenLocations":[  
            "Binance"
         ],
         "tokenBalances":[  
            0.00778
         ]
      },
      {  
         "symbol":"OST",
         "tokenProportions":[  
            "100.00%"
         ],
         "totalBalance":0.574,
         "USD":"$0.18",
         "portionOfPortfolio":"0.00%",
         "tokenLocations":[  
            "Binance"
         ],
         "tokenBalances":[  
            0.574
         ]
      },
      {  
         "symbol":"BAT",
         "tokenProportions":[  
            "100.00%"
         ],
         "totalBalance":0.00602,
         "USD":"$0.00",
         "portionOfPortfolio":"0.00%",
         "tokenLocations":[  
            "Binance"
         ],
         "tokenBalances":[  
            0.00602
         ]
      },
      {  
         "symbol":"GAS",
         "tokenProportions":[  
            "100.00%"
         ],
         "totalBalance":0.00161466,
         "USD":"$0.08",
         "portionOfPortfolio":"0.00%",
         "tokenLocations":[  
            "Binance"
         ],
         "tokenBalances":[  
            0.00161466
         ]
      },
      {  
         "symbol":"NEO",
         "tokenProportions":[  
            "100.00%"
         ],
         "totalBalance":1.07E-4,
         "USD":"$0.01",
         "portionOfPortfolio":"0.00%",
         "tokenLocations":[  
            "Binance"
         ],
         "tokenBalances":[  
            1.07E-4
         ]
      },
      {  
         "symbol":"LTC",
         "tokenProportions":[  
            "100.00%"
         ],
         "totalBalance":6.459E-5,
         "USD":"$0.01",
         "portionOfPortfolio":"0.00%",
         "tokenLocations":[  
            "Binance"
         ],
         "tokenBalances":[  
            6.459E-5
         ]
      },
      {  
         "symbol":"ADA",
         "tokenProportions":[  
            "100.00%"
         ],
         "totalBalance":0.885,
         "USD":"$0.34",
         "portionOfPortfolio":"0.00%",
         "tokenLocations":[  
            "Binance"
         ],
         "tokenBalances":[  
            0.885
         ]
      }
   ]
}
